[
    {
  "dish_name": "yellow rice",
  "descriptions": "this is malay rice",
  "vegetarian": "y"
  },
    {
  "dish_name": "sugarcane prawn",
  "descriptions": "this is thai prawn",
  "vegetarian": "n"
  },
    {
  "dish_name": "calamari ring",
  "descriptions": "this is western seafood",
  "vegetarian": "n"
  },
    {
  "dish_name": "teriyaki salmon",
  "descriptions": "this is japanese fish",
  "vegetarian": "n"
  },
    {
  "dish_name": "salsa chicken",
  "descriptions": "this is western chicken",
  "vegetarian": "n"
  },
    {
  "dish_name": "capsicum omelete",
  "descriptions": "this is western omelete",
  "vegetarian": "n"
  },
    {
  "dish_name": "potato croquette",
  "descriptions": "this is japanese potato",
  "vegetarian": "n"
  },
    {
  "dish_name": "fruit tartlet",
  "descriptions": "this is western bakery",
  "vegetarian": "n"
  },
    {
  "dish_name": "panna cotta",
  "descriptions": "this is western dessert",
  "vegetarian": "n"
  },
    {
  "dish_name": "orange juice",
  "descriptions": "this is western dessert",
  "vegetarian": "y"
  }
  ]
